-- Merging decision tree log ---
application
INJECTED from /Users/denisulc/projects/voice_command/android/app/src/main/AndroidManifest.xml:3:4-33:19
MERGED from [androidx.window:window:1.0.0-beta04] /Users/denisulc/.gradle/caches/transforms-3/49bc944d29f70d45aa5add8e43e3247e/transformed/jetified-window-1.0.0-beta04/AndroidManifest.xml:24:5-31:19
MERGED from [androidx.window:window:1.0.0-beta04] /Users/denisulc/.gradle/caches/transforms-3/49bc944d29f70d45aa5add8e43e3247e/transformed/jetified-window-1.0.0-beta04/AndroidManifest.xml:24:5-31:19
MERGED from [androidx.core:core:1.6.0] /Users/denisulc/.gradle/caches/transforms-3/acbce933e4b464a5224ed377a62db1f5/transformed/core-1.6.0/AndroidManifest.xml:24:5-89
MERGED from [androidx.core:core:1.6.0] /Users/denisulc/.gradle/caches/transforms-3/acbce933e4b464a5224ed377a62db1f5/transformed/core-1.6.0/AndroidManifest.xml:24:5-89
MERGED from [androidx.versionedparcelable:versionedparcelable:1.1.1] /Users/denisulc/.gradle/caches/transforms-3/c6290d38a27dcf8d064fa9cefcb89071/transformed/versionedparcelable-1.1.1/AndroidManifest.xml:24:5-25:19
MERGED from [androidx.versionedparcelable:versionedparcelable:1.1.1] /Users/denisulc/.gradle/caches/transforms-3/c6290d38a27dcf8d064fa9cefcb89071/transformed/versionedparcelable-1.1.1/AndroidManifest.xml:24:5-25:19
	android:appComponentFactory
		ADDED from [androidx.core:core:1.6.0] /Users/denisulc/.gradle/caches/transforms-3/acbce933e4b464a5224ed377a62db1f5/transformed/core-1.6.0/AndroidManifest.xml:24:18-86
	android:label
		ADDED from /Users/denisulc/projects/voice_command/android/app/src/main/AndroidManifest.xml:4:9-38
	android:icon
		ADDED from /Users/denisulc/projects/voice_command/android/app/src/main/AndroidManifest.xml:6:9-43
	android:name
		INJECTED from /Users/denisulc/projects/voice_command/android/app/src/main/AndroidManifest.xml
		ADDED from /Users/denisulc/projects/voice_command/android/app/src/main/AndroidManifest.xml:5:9-42
manifest
ADDED from /Users/denisulc/projects/voice_command/android/app/src/main/AndroidManifest.xml:1:1-44:12
INJECTED from /Users/denisulc/projects/voice_command/android/app/src/main/AndroidManifest.xml:1:1-44:12
INJECTED from /Users/denisulc/projects/voice_command/android/app/src/main/AndroidManifest.xml:1:1-44:12
INJECTED from /Users/denisulc/projects/voice_command/android/app/src/main/AndroidManifest.xml:1:1-44:12
MERGED from [:speech_to_text] /Users/denisulc/projects/voice_command/build/speech_to_text/intermediates/merged_manifest/release/AndroidManifest.xml:2:1-11:12
MERGED from [androidx.window:window-java:1.0.0-beta04] /Users/denisulc/.gradle/caches/transforms-3/246793f755122fe14a5802655438cb75/transformed/jetified-window-java-1.0.0-beta04/AndroidManifest.xml:17:1-23:12
MERGED from [androidx.window:window:1.0.0-beta04] /Users/denisulc/.gradle/caches/transforms-3/49bc944d29f70d45aa5add8e43e3247e/transformed/jetified-window-1.0.0-beta04/AndroidManifest.xml:17:1-33:12
MERGED from [androidx.fragment:fragment:1.1.0] /Users/denisulc/.gradle/caches/transforms-3/0e0e1a382b52c0572988a1c50e96d2f7/transformed/fragment-1.1.0/AndroidManifest.xml:17:1-24:12
MERGED from [androidx.viewpager:viewpager:1.0.0] /Users/denisulc/.gradle/caches/transforms-3/045d2e69ed718df502093495707de7d0/transformed/viewpager-1.0.0/AndroidManifest.xml:17:1-22:12
MERGED from [androidx.loader:loader:1.0.0] /Users/denisulc/.gradle/caches/transforms-3/906f41b23948e23cf276f1b1ba5ed41e/transformed/loader-1.0.0/AndroidManifest.xml:17:1-22:12
MERGED from [androidx.activity:activity:1.0.0] /Users/denisulc/.gradle/caches/transforms-3/8fa8bdf086632123dcb3f9226ab7b2b9/transformed/jetified-activity-1.0.0/AndroidManifest.xml:17:1-24:12
MERGED from [androidx.customview:customview:1.0.0] /Users/denisulc/.gradle/caches/transforms-3/d411e96186971239cc9320701a4aa95b/transformed/customview-1.0.0/AndroidManifest.xml:17:1-22:12
MERGED from [androidx.core:core:1.6.0] /Users/denisulc/.gradle/caches/transforms-3/acbce933e4b464a5224ed377a62db1f5/transformed/core-1.6.0/AndroidManifest.xml:17:1-26:12
MERGED from [androidx.lifecycle:lifecycle-runtime:2.2.0] /Users/denisulc/.gradle/caches/transforms-3/025f0ebb178f72f967988fd890b9b9c6/transformed/lifecycle-runtime-2.2.0/AndroidManifest.xml:17:1-24:12
MERGED from [androidx.savedstate:savedstate:1.0.0] /Users/denisulc/.gradle/caches/transforms-3/61be2594815516b1d798e8de806d8dcb/transformed/jetified-savedstate-1.0.0/AndroidManifest.xml:17:1-24:12
MERGED from [androidx.lifecycle:lifecycle-livedata:2.0.0] /Users/denisulc/.gradle/caches/transforms-3/4d571c0d2420042bbe5204d312a62bb2/transformed/lifecycle-livedata-2.0.0/AndroidManifest.xml:17:1-22:12
MERGED from [androidx.lifecycle:lifecycle-livedata-core:2.0.0] /Users/denisulc/.gradle/caches/transforms-3/ab7ce279708bbb9e6bfa95c7580f1bb9/transformed/lifecycle-livedata-core-2.0.0/AndroidManifest.xml:17:1-22:12
MERGED from [androidx.tracing:tracing:1.0.0] /Users/denisulc/.gradle/caches/transforms-3/9a15d0431946b4658756ca271d093b65/transformed/jetified-tracing-1.0.0/AndroidManifest.xml:17:1-24:12
MERGED from [androidx.arch.core:core-runtime:2.0.0] /Users/denisulc/.gradle/caches/transforms-3/57003bf956257e647aeaeb419a007e24/transformed/core-runtime-2.0.0/AndroidManifest.xml:17:1-22:12
MERGED from [androidx.versionedparcelable:versionedparcelable:1.1.1] /Users/denisulc/.gradle/caches/transforms-3/c6290d38a27dcf8d064fa9cefcb89071/transformed/versionedparcelable-1.1.1/AndroidManifest.xml:17:1-27:12
MERGED from [androidx.lifecycle:lifecycle-viewmodel:2.1.0] /Users/denisulc/.gradle/caches/transforms-3/ed9734c73cdec898947618088fbe87b0/transformed/lifecycle-viewmodel-2.1.0/AndroidManifest.xml:17:1-22:12
MERGED from [androidx.annotation:annotation-experimental:1.1.0] /Users/denisulc/.gradle/caches/transforms-3/58e3540d7f5a5bac6af9a8f8fab44363/transformed/jetified-annotation-experimental-1.1.0/AndroidManifest.xml:17:1-24:12
INJECTED from /Users/denisulc/projects/voice_command/android/app/src/main/AndroidManifest.xml:1:1-44:12
INJECTED from /Users/denisulc/projects/voice_command/android/app/src/main/AndroidManifest.xml:1:1-44:12
INJECTED from /Users/denisulc/projects/voice_command/android/app/src/main/AndroidManifest.xml:1:1-44:12
	package
		ADDED from /Users/denisulc/projects/voice_command/android/app/src/main/AndroidManifest.xml:2:5-40
		INJECTED from /Users/denisulc/projects/voice_command/android/app/src/main/AndroidManifest.xml
		INJECTED from /Users/denisulc/projects/voice_command/android/app/src/main/AndroidManifest.xml
	android:versionName
		INJECTED from /Users/denisulc/projects/voice_command/android/app/src/main/AndroidManifest.xml
		ADDED from /Users/denisulc/projects/voice_command/android/app/src/main/AndroidManifest.xml:1:1-44:12
		INJECTED from /Users/denisulc/projects/voice_command/android/app/src/main/AndroidManifest.xml
	android:versionCode
		INJECTED from /Users/denisulc/projects/voice_command/android/app/src/main/AndroidManifest.xml
		ADDED from /Users/denisulc/projects/voice_command/android/app/src/main/AndroidManifest.xml:1:1-44:12
		INJECTED from /Users/denisulc/projects/voice_command/android/app/src/main/AndroidManifest.xml
	xmlns:android
		ADDED from /Users/denisulc/projects/voice_command/android/app/src/main/AndroidManifest.xml:1:11-69
uses-permission#android.permission.RECORD_AUDIO
ADDED from /Users/denisulc/projects/voice_command/android/app/src/main/AndroidManifest.xml:34:5-70
	android:name
		ADDED from /Users/denisulc/projects/voice_command/android/app/src/main/AndroidManifest.xml:34:22-68
uses-permission#android.permission.INTERNET
ADDED from /Users/denisulc/projects/voice_command/android/app/src/main/AndroidManifest.xml:35:5-66
	android:name
		ADDED from /Users/denisulc/projects/voice_command/android/app/src/main/AndroidManifest.xml:35:22-64
uses-permission#android.permission.BLUETOOTH
ADDED from /Users/denisulc/projects/voice_command/android/app/src/main/AndroidManifest.xml:36:5-67
	android:name
		ADDED from /Users/denisulc/projects/voice_command/android/app/src/main/AndroidManifest.xml:36:22-65
uses-permission#android.permission.BLUETOOTH_ADMIN
ADDED from /Users/denisulc/projects/voice_command/android/app/src/main/AndroidManifest.xml:37:5-73
	android:name
		ADDED from /Users/denisulc/projects/voice_command/android/app/src/main/AndroidManifest.xml:37:22-71
uses-permission#android.permission.BLUETOOTH_CONNECT
ADDED from /Users/denisulc/projects/voice_command/android/app/src/main/AndroidManifest.xml:38:5-75
MERGED from [:speech_to_text] /Users/denisulc/projects/voice_command/build/speech_to_text/intermediates/merged_manifest/release/AndroidManifest.xml:9:5-76
MERGED from [:speech_to_text] /Users/denisulc/projects/voice_command/build/speech_to_text/intermediates/merged_manifest/release/AndroidManifest.xml:9:5-76
	android:name
		ADDED from /Users/denisulc/projects/voice_command/android/app/src/main/AndroidManifest.xml:38:22-73
queries
ADDED from /Users/denisulc/projects/voice_command/android/app/src/main/AndroidManifest.xml:39:5-43:15
intent#action:name:android.speech.RecognitionService
ADDED from /Users/denisulc/projects/voice_command/android/app/src/main/AndroidManifest.xml:40:9-42:18
action#android.speech.RecognitionService
ADDED from /Users/denisulc/projects/voice_command/android/app/src/main/AndroidManifest.xml:41:13-72
	android:name
		ADDED from /Users/denisulc/projects/voice_command/android/app/src/main/AndroidManifest.xml:41:21-69
uses-sdk
INJECTED from /Users/denisulc/projects/voice_command/android/app/src/main/AndroidManifest.xml reason: use-sdk injection requested
INJECTED from /Users/denisulc/projects/voice_command/android/app/src/main/AndroidManifest.xml
INJECTED from /Users/denisulc/projects/voice_command/android/app/src/main/AndroidManifest.xml
MERGED from [:speech_to_text] /Users/denisulc/projects/voice_command/build/speech_to_text/intermediates/merged_manifest/release/AndroidManifest.xml:5:5-7:41
MERGED from [:speech_to_text] /Users/denisulc/projects/voice_command/build/speech_to_text/intermediates/merged_manifest/release/AndroidManifest.xml:5:5-7:41
MERGED from [androidx.window:window-java:1.0.0-beta04] /Users/denisulc/.gradle/caches/transforms-3/246793f755122fe14a5802655438cb75/transformed/jetified-window-java-1.0.0-beta04/AndroidManifest.xml:19:5-21:41
MERGED from [androidx.window:window-java:1.0.0-beta04] /Users/denisulc/.gradle/caches/transforms-3/246793f755122fe14a5802655438cb75/transformed/jetified-window-java-1.0.0-beta04/AndroidManifest.xml:19:5-21:41
MERGED from [androidx.window:window:1.0.0-beta04] /Users/denisulc/.gradle/caches/transforms-3/49bc944d29f70d45aa5add8e43e3247e/transformed/jetified-window-1.0.0-beta04/AndroidManifest.xml:20:5-22:41
MERGED from [androidx.window:window:1.0.0-beta04] /Users/denisulc/.gradle/caches/transforms-3/49bc944d29f70d45aa5add8e43e3247e/transformed/jetified-window-1.0.0-beta04/AndroidManifest.xml:20:5-22:41
MERGED from [androidx.fragment:fragment:1.1.0] /Users/denisulc/.gradle/caches/transforms-3/0e0e1a382b52c0572988a1c50e96d2f7/transformed/fragment-1.1.0/AndroidManifest.xml:20:5-22:41
MERGED from [androidx.fragment:fragment:1.1.0] /Users/denisulc/.gradle/caches/transforms-3/0e0e1a382b52c0572988a1c50e96d2f7/transformed/fragment-1.1.0/AndroidManifest.xml:20:5-22:41
MERGED from [androidx.viewpager:viewpager:1.0.0] /Users/denisulc/.gradle/caches/transforms-3/045d2e69ed718df502093495707de7d0/transformed/viewpager-1.0.0/AndroidManifest.xml:20:5-44
MERGED from [androidx.viewpager:viewpager:1.0.0] /Users/denisulc/.gradle/caches/transforms-3/045d2e69ed718df502093495707de7d0/transformed/viewpager-1.0.0/AndroidManifest.xml:20:5-44
MERGED from [androidx.loader:loader:1.0.0] /Users/denisulc/.gradle/caches/transforms-3/906f41b23948e23cf276f1b1ba5ed41e/transformed/loader-1.0.0/AndroidManifest.xml:20:5-44
MERGED from [androidx.loader:loader:1.0.0] /Users/denisulc/.gradle/caches/transforms-3/906f41b23948e23cf276f1b1ba5ed41e/transformed/loader-1.0.0/AndroidManifest.xml:20:5-44
MERGED from [androidx.activity:activity:1.0.0] /Users/denisulc/.gradle/caches/transforms-3/8fa8bdf086632123dcb3f9226ab7b2b9/transformed/jetified-activity-1.0.0/AndroidManifest.xml:20:5-22:41
MERGED from [androidx.activity:activity:1.0.0] /Users/denisulc/.gradle/caches/transforms-3/8fa8bdf086632123dcb3f9226ab7b2b9/transformed/jetified-activity-1.0.0/AndroidManifest.xml:20:5-22:41
MERGED from [androidx.customview:customview:1.0.0] /Users/denisulc/.gradle/caches/transforms-3/d411e96186971239cc9320701a4aa95b/transformed/customview-1.0.0/AndroidManifest.xml:20:5-44
MERGED from [androidx.customview:customview:1.0.0] /Users/denisulc/.gradle/caches/transforms-3/d411e96186971239cc9320701a4aa95b/transformed/customview-1.0.0/AndroidManifest.xml:20:5-44
MERGED from [androidx.core:core:1.6.0] /Users/denisulc/.gradle/caches/transforms-3/acbce933e4b464a5224ed377a62db1f5/transformed/core-1.6.0/AndroidManifest.xml:20:5-22:41
MERGED from [androidx.core:core:1.6.0] /Users/denisulc/.gradle/caches/transforms-3/acbce933e4b464a5224ed377a62db1f5/transformed/core-1.6.0/AndroidManifest.xml:20:5-22:41
MERGED from [androidx.lifecycle:lifecycle-runtime:2.2.0] /Users/denisulc/.gradle/caches/transforms-3/025f0ebb178f72f967988fd890b9b9c6/transformed/lifecycle-runtime-2.2.0/AndroidManifest.xml:20:5-22:41
MERGED from [androidx.lifecycle:lifecycle-runtime:2.2.0] /Users/denisulc/.gradle/caches/transforms-3/025f0ebb178f72f967988fd890b9b9c6/transformed/lifecycle-runtime-2.2.0/AndroidManifest.xml:20:5-22:41
MERGED from [androidx.savedstate:savedstate:1.0.0] /Users/denisulc/.gradle/caches/transforms-3/61be2594815516b1d798e8de806d8dcb/transformed/jetified-savedstate-1.0.0/AndroidManifest.xml:20:5-22:41
MERGED from [androidx.savedstate:savedstate:1.0.0] /Users/denisulc/.gradle/caches/transforms-3/61be2594815516b1d798e8de806d8dcb/transformed/jetified-savedstate-1.0.0/AndroidManifest.xml:20:5-22:41
MERGED from [androidx.lifecycle:lifecycle-livedata:2.0.0] /Users/denisulc/.gradle/caches/transforms-3/4d571c0d2420042bbe5204d312a62bb2/transformed/lifecycle-livedata-2.0.0/AndroidManifest.xml:20:5-44
MERGED from [androidx.lifecycle:lifecycle-livedata:2.0.0] /Users/denisulc/.gradle/caches/transforms-3/4d571c0d2420042bbe5204d312a62bb2/transformed/lifecycle-livedata-2.0.0/AndroidManifest.xml:20:5-44
MERGED from [androidx.lifecycle:lifecycle-livedata-core:2.0.0] /Users/denisulc/.gradle/caches/transforms-3/ab7ce279708bbb9e6bfa95c7580f1bb9/transformed/lifecycle-livedata-core-2.0.0/AndroidManifest.xml:20:5-44
MERGED from [androidx.lifecycle:lifecycle-livedata-core:2.0.0] /Users/denisulc/.gradle/caches/transforms-3/ab7ce279708bbb9e6bfa95c7580f1bb9/transformed/lifecycle-livedata-core-2.0.0/AndroidManifest.xml:20:5-44
MERGED from [androidx.tracing:tracing:1.0.0] /Users/denisulc/.gradle/caches/transforms-3/9a15d0431946b4658756ca271d093b65/transformed/jetified-tracing-1.0.0/AndroidManifest.xml:20:5-22:41
MERGED from [androidx.tracing:tracing:1.0.0] /Users/denisulc/.gradle/caches/transforms-3/9a15d0431946b4658756ca271d093b65/transformed/jetified-tracing-1.0.0/AndroidManifest.xml:20:5-22:41
MERGED from [androidx.arch.core:core-runtime:2.0.0] /Users/denisulc/.gradle/caches/transforms-3/57003bf956257e647aeaeb419a007e24/transformed/core-runtime-2.0.0/AndroidManifest.xml:20:5-44
MERGED from [androidx.arch.core:core-runtime:2.0.0] /Users/denisulc/.gradle/caches/transforms-3/57003bf956257e647aeaeb419a007e24/transformed/core-runtime-2.0.0/AndroidManifest.xml:20:5-44
MERGED from [androidx.versionedparcelable:versionedparcelable:1.1.1] /Users/denisulc/.gradle/caches/transforms-3/c6290d38a27dcf8d064fa9cefcb89071/transformed/versionedparcelable-1.1.1/AndroidManifest.xml:20:5-22:41
MERGED from [androidx.versionedparcelable:versionedparcelable:1.1.1] /Users/denisulc/.gradle/caches/transforms-3/c6290d38a27dcf8d064fa9cefcb89071/transformed/versionedparcelable-1.1.1/AndroidManifest.xml:20:5-22:41
MERGED from [androidx.lifecycle:lifecycle-viewmodel:2.1.0] /Users/denisulc/.gradle/caches/transforms-3/ed9734c73cdec898947618088fbe87b0/transformed/lifecycle-viewmodel-2.1.0/AndroidManifest.xml:20:5-44
MERGED from [androidx.lifecycle:lifecycle-viewmodel:2.1.0] /Users/denisulc/.gradle/caches/transforms-3/ed9734c73cdec898947618088fbe87b0/transformed/lifecycle-viewmodel-2.1.0/AndroidManifest.xml:20:5-44
MERGED from [androidx.annotation:annotation-experimental:1.1.0] /Users/denisulc/.gradle/caches/transforms-3/58e3540d7f5a5bac6af9a8f8fab44363/transformed/jetified-annotation-experimental-1.1.0/AndroidManifest.xml:20:5-22:41
MERGED from [androidx.annotation:annotation-experimental:1.1.0] /Users/denisulc/.gradle/caches/transforms-3/58e3540d7f5a5bac6af9a8f8fab44363/transformed/jetified-annotation-experimental-1.1.0/AndroidManifest.xml:20:5-22:41
INJECTED from /Users/denisulc/projects/voice_command/android/app/src/main/AndroidManifest.xml
INJECTED from /Users/denisulc/projects/voice_command/android/app/src/main/AndroidManifest.xml
	android:targetSdkVersion
		INJECTED from /Users/denisulc/projects/voice_command/android/app/src/main/AndroidManifest.xml
		ADDED from /Users/denisulc/projects/voice_command/android/app/src/main/AndroidManifest.xml
		INJECTED from /Users/denisulc/projects/voice_command/android/app/src/main/AndroidManifest.xml
	android:minSdkVersion
		INJECTED from /Users/denisulc/projects/voice_command/android/app/src/main/AndroidManifest.xml
		ADDED from /Users/denisulc/projects/voice_command/android/app/src/main/AndroidManifest.xml
		INJECTED from /Users/denisulc/projects/voice_command/android/app/src/main/AndroidManifest.xml
activity#com.example.voice_command.MainActivity
ADDED from /Users/denisulc/projects/voice_command/android/app/src/main/AndroidManifest.xml:7:9-27:20
	android:launchMode
		ADDED from /Users/denisulc/projects/voice_command/android/app/src/main/AndroidManifest.xml:10:13-43
	android:hardwareAccelerated
		ADDED from /Users/denisulc/projects/voice_command/android/app/src/main/AndroidManifest.xml:13:13-47
	android:windowSoftInputMode
		ADDED from /Users/denisulc/projects/voice_command/android/app/src/main/AndroidManifest.xml:14:13-55
	android:exported
		ADDED from /Users/denisulc/projects/voice_command/android/app/src/main/AndroidManifest.xml:9:13-36
	android:configChanges
		ADDED from /Users/denisulc/projects/voice_command/android/app/src/main/AndroidManifest.xml:12:13-163
	android:theme
		ADDED from /Users/denisulc/projects/voice_command/android/app/src/main/AndroidManifest.xml:11:13-47
	android:name
		ADDED from /Users/denisulc/projects/voice_command/android/app/src/main/AndroidManifest.xml:8:13-41
meta-data#io.flutter.embedding.android.NormalTheme
ADDED from /Users/denisulc/projects/voice_command/android/app/src/main/AndroidManifest.xml:19:13-22:17
	android:resource
		ADDED from /Users/denisulc/projects/voice_command/android/app/src/main/AndroidManifest.xml:21:15-52
	android:name
		ADDED from /Users/denisulc/projects/voice_command/android/app/src/main/AndroidManifest.xml:20:15-70
intent-filter#action:name:android.intent.action.MAIN+category:name:android.intent.category.LAUNCHER
ADDED from /Users/denisulc/projects/voice_command/android/app/src/main/AndroidManifest.xml:23:13-26:29
action#android.intent.action.MAIN
ADDED from /Users/denisulc/projects/voice_command/android/app/src/main/AndroidManifest.xml:24:17-68
	android:name
		ADDED from /Users/denisulc/projects/voice_command/android/app/src/main/AndroidManifest.xml:24:25-66
category#android.intent.category.LAUNCHER
ADDED from /Users/denisulc/projects/voice_command/android/app/src/main/AndroidManifest.xml:25:17-76
	android:name
		ADDED from /Users/denisulc/projects/voice_command/android/app/src/main/AndroidManifest.xml:25:27-74
meta-data#flutterEmbedding
ADDED from /Users/denisulc/projects/voice_command/android/app/src/main/AndroidManifest.xml:30:9-32:33
	android:value
		ADDED from /Users/denisulc/projects/voice_command/android/app/src/main/AndroidManifest.xml:32:13-30
	android:name
		ADDED from /Users/denisulc/projects/voice_command/android/app/src/main/AndroidManifest.xml:31:13-44
uses-library#androidx.window.extensions
ADDED from [androidx.window:window:1.0.0-beta04] /Users/denisulc/.gradle/caches/transforms-3/49bc944d29f70d45aa5add8e43e3247e/transformed/jetified-window-1.0.0-beta04/AndroidManifest.xml:25:9-27:40
	android:required
		ADDED from [androidx.window:window:1.0.0-beta04] /Users/denisulc/.gradle/caches/transforms-3/49bc944d29f70d45aa5add8e43e3247e/transformed/jetified-window-1.0.0-beta04/AndroidManifest.xml:27:13-37
	android:name
		ADDED from [androidx.window:window:1.0.0-beta04] /Users/denisulc/.gradle/caches/transforms-3/49bc944d29f70d45aa5add8e43e3247e/transformed/jetified-window-1.0.0-beta04/AndroidManifest.xml:26:13-54
uses-library#androidx.window.sidecar
ADDED from [androidx.window:window:1.0.0-beta04] /Users/denisulc/.gradle/caches/transforms-3/49bc944d29f70d45aa5add8e43e3247e/transformed/jetified-window-1.0.0-beta04/AndroidManifest.xml:28:9-30:40
	android:required
		ADDED from [androidx.window:window:1.0.0-beta04] /Users/denisulc/.gradle/caches/transforms-3/49bc944d29f70d45aa5add8e43e3247e/transformed/jetified-window-1.0.0-beta04/AndroidManifest.xml:30:13-37
	android:name
		ADDED from [androidx.window:window:1.0.0-beta04] /Users/denisulc/.gradle/caches/transforms-3/49bc944d29f70d45aa5add8e43e3247e/transformed/jetified-window-1.0.0-beta04/AndroidManifest.xml:29:13-51
